simulation/qsim/elevador.msim.vcd
$comment
	File created using the following command:
		vcd file elevador.msim.vcd -direction
$end
$date
	Mon Oct 17 21:01:22 2022
$end
$version
	ModelSim Version 2020.1
$end
$timescale
	1ps
$end

$scope module elevador_vhd_vec_tst $end
$var wire 1 ! andar_atual [1] $end
$var wire 1 " andar_atual [0] $end
$var wire 1 # andar_selecionado [0] $end
$var wire 1 $ andar_selecionado [1] $end
$var wire 1 % andar_selecionado [2] $end
$var wire 1 & clk $end

$scope module i1 $end
$var wire 1 ' gnd $end
$var wire 1 ( vcc $end
$var wire 1 ) unknown $end
$var wire 1 * devoe $end
$var wire 1 + devclrn $end
$var wire 1 , devpor $end
$var wire 1 - ww_devoe $end
$var wire 1 . ww_devclrn $end
$var wire 1 / ww_devpor $end
$var wire 1 0 ww_clk $end
$var wire 1 1 ww_andar_selecionado [0] $end
$var wire 1 2 ww_andar_selecionado [1] $end
$var wire 1 3 ww_andar_selecionado [2] $end
$var wire 1 4 ww_andar_atual [1] $end
$var wire 1 5 ww_andar_atual [0] $end
$var wire 1 6 \clk~input_o\ $end
$var wire 1 7 \andar_selecionado[2]~output_o\ $end
$var wire 1 8 \andar_selecionado[1]~output_o\ $end
$var wire 1 9 \andar_selecionado[0]~output_o\ $end
$var wire 1 : \andar_atual[0]~output_o\ $end
$var wire 1 ; \andar_atual[1]~output_o\ $end
$upscope $end
$upscope $end
$enddefinitions $end
#0
$dumpvars
0&
0'
1(
x)
1*
1+
1,
1-
1.
1/
00
06
07
08
09
0:
1;
0#
0$
0%
1!
0"
01
02
03
14
05
$end
#5000
1&
10
16
#10000
0&
00
06
#15000
1&
10
16
#20000
0&
00
06
#25000
1&
10
16
#30000
0&
00
06
#35000
1&
10
16
#40000
0&
00
06
#45000
1&
10
16
#50000
0&
00
06
#55000
1&
10
16
#60000
0&
00
06
#65000
1&
10
16
#70000
0&
00
06
#75000
1&
10
16
#80000
0&
00
06
#85000
1&
10
16
#90000
0&
00
06
#95000
1&
10
16
#100000
0&
00
06
#105000
1&
10
16
#110000
0&
00
06
#115000
1&
10
16
#120000
0&
00
06
#125000
1&
10
16
#130000
0&
00
06
#135000
1&
10
16
#140000
0&
00
06
#145000
1&
10
16
#150000
0&
00
06
#155000
1&
10
16
#160000
0&
00
06
#165000
1&
10
16
#170000
0&
00
06
#175000
1&
10
16
#180000
0&
00
06
#185000
1&
10
16
#190000
0&
00
06
#195000
1&
10
16
#200000
0&
00
06
#205000
1&
10
16
#210000
0&
00
06
#215000
1&
10
16
#220000
0&
00
06
#225000
1&
10
16
#230000
0&
00
06
#235000
1&
10
16
#240000
0&
00
06
#245000
1&
10
16
#250000
0&
00
06
#255000
1&
10
16
#260000
0&
00
06
#265000
1&
10
16
#270000
0&
00
06
#275000
1&
10
16
#280000
0&
00
06
#285000
1&
10
16
#290000
0&
00
06
#295000
1&
10
16
#300000
0&
00
06
#305000
1&
10
16
#310000
0&
00
06
#315000
1&
10
16
#320000
0&
00
06
#325000
1&
10
16
#330000
0&
00
06
#335000
1&
10
16
#340000
0&
00
06
#345000
1&
10
16
#350000
0&
00
06
#355000
1&
10
16
#360000
0&
00
06
#365000
1&
10
16
#370000
0&
00
06
#375000
1&
10
16
#380000
0&
00
06
#385000
1&
10
16
#390000
0&
00
06
#395000
1&
10
16
#400000
0&
00
06
#405000
1&
10
16
#410000
0&
00
06
#415000
1&
10
16
#420000
0&
00
06
#425000
1&
10
16
#430000
0&
00
06
#435000
1&
10
16
#440000
0&
00
06
#445000
1&
10
16
#450000
0&
00
06
#455000
1&
10
16
#460000
0&
00
06
#465000
1&
10
16
#470000
0&
00
06
#475000
1&
10
16
#480000
0&
00
06
#485000
1&
10
16
#490000
0&
00
06
#495000
1&
10
16
#500000
0&
00
06
#505000
1&
10
16
#510000
0&
00
06
#515000
1&
10
16
#520000
0&
00
06
#525000
1&
10
16
#530000
0&
00
06
#535000
1&
10
16
#540000
0&
00
06
#545000
1&
10
16
#550000
0&
00
06
#555000
1&
10
16
#560000
0&
00
06
#565000
1&
10
16
#570000
0&
00
06
#575000
1&
10
16
#580000
0&
00
06
#585000
1&
10
16
#590000
0&
00
06
#595000
1&
10
16
#600000
0&
00
06
#605000
1&
10
16
#610000
0&
00
06
#615000
1&
10
16
#620000
0&
00
06
#625000
1&
10
16
#630000
0&
00
06
#635000
1&
10
16
#640000
0&
00
06
#645000
1&
10
16
#650000
0&
00
06
#655000
1&
10
16
#660000
0&
00
06
#665000
1&
10
16
#670000
0&
00
06
#675000
1&
10
16
#680000
0&
00
06
#685000
1&
10
16
#690000
0&
00
06
#695000
1&
10
16
#700000
0&
00
06
#705000
1&
10
16
#710000
0&
00
06
#715000
1&
10
16
#720000
0&
00
06
#725000
1&
10
16
#730000
0&
00
06
#735000
1&
10
16
#740000
0&
00
06
#745000
1&
10
16
#750000
0&
00
06
#755000
1&
10
16
#760000
0&
00
06
#765000
1&
10
16
#770000
0&
00
06
#775000
1&
10
16
#780000
0&
00
06
#785000
1&
10
16
#790000
0&
00
06
#795000
1&
10
16
#800000
0&
00
06
#805000
1&
10
16
#810000
0&
00
06
#815000
1&
10
16
#820000
0&
00
06
#825000
1&
10
16
#830000
0&
00
06
#835000
1&
10
16
#840000
0&
00
06
#845000
1&
10
16
#850000
0&
00
06
#855000
1&
10
16
#860000
0&
00
06
#865000
1&
10
16
#870000
0&
00
06
#875000
1&
10
16
#880000
0&
00
06
#885000
1&
10
16
#890000
0&
00
06
#895000
1&
10
16
#900000
0&
00
06
#905000
1&
10
16
#910000
0&
00
06
#915000
1&
10
16
#920000
0&
00
06
#925000
1&
10
16
#930000
0&
00
06
#935000
1&
10
16
#940000
0&
00
06
#945000
1&
10
16
#950000
0&
00
06
#955000
1&
10
16
#960000
0&
00
06
#965000
1&
10
16
#970000
0&
00
06
#975000
1&
10
16
#980000
0&
00
06
#985000
1&
10
16
#990000
0&
00
06
#995000
1&
10
16
